{
    "jcr:primaryType" : "nt:unstructured",
    "jcr:title" : "The Hippie Site",
    "jcr:description" : "Anything And Everything Hippie Magic - Welcome To The Groovy Side Of The World",
    "sling:resourceType" : "site/home"
}
